<svg width="68" height="20" viewBox="0 0 68 20" fill="none" xmlns="http://www.w3.org/2000/svg">
<g clip-path="url(#clip0_1_661)">
<path d="M0 5L9.28572 0V3.57143L2.85714 6.78571V10L9.28572 6.42857V10L0 15V5Z" fill="#DECBFF"/>
<path d="M0 15L9.28572 10L17.8571 15L9.28572 20L0 15Z" fill="#B48DF8"/>
<path d="M9.28571 10V6.42859L17.8571 11.4286V15L9.28571 10Z" fill="white"/>
<path d="M9.28571 3.57143V0L17.8571 5V8.57143L9.28571 3.57143Z" fill="white"/>
<path d="M6.7857 7.85712L2.85712 6.78569L9.2857 3.57141L17.8571 8.57141V11.4286L9.2857 6.42855L6.7857 7.85712Z" fill="#B48DF8"/>
<path d="M2.85712 10V6.78571L6.7857 7.85714L2.85712 10Z" fill="white"/>
<path fill-rule="evenodd" clip-rule="evenodd" d="M45.9705 9.46682L45.9884 17.2669H46.9761H47.9637L47.9839 16.6121L48.0041 15.9574L48.4044 16.3484C48.842 16.776 49.6699 17.2217 50.3271 17.3838C50.8257 17.5068 52.0845 17.507 52.5846 17.3842C53.3004 17.2085 54.215 16.7058 54.7166 16.2124C55.8599 15.088 56.3773 13.6817 56.3046 11.8963C56.2623 10.8552 56.1473 10.3872 55.7125 9.48633C55.0903 8.19728 53.9043 7.24269 52.5421 6.93456C51.8341 6.77439 50.547 6.82209 49.9728 7.02974C49.3458 7.25639 48.8998 7.51252 48.5073 7.87136L48.1401 8.20697V4.93686V1.66669H47.0463H45.9525L45.9705 9.46682ZM27.4344 6.93621C24.8204 7.51582 23.021 10.1148 23.3786 12.7948C23.6817 15.0674 25.1376 16.7443 27.3285 17.3442C27.9518 17.515 29.2469 17.5195 29.8683 17.3531C30.7179 17.1256 31.4645 16.6933 32.0528 16.0884C32.3452 15.7878 32.6382 15.4438 32.7041 15.3239L32.8238 15.106L32.0873 14.5264L31.3508 13.9468L30.8287 14.4777C30.486 14.826 30.1645 15.0762 29.8934 15.2053C29.5149 15.3856 29.4093 15.4021 28.6337 15.4021C27.8271 15.4021 27.7645 15.3912 27.3092 15.1719C25.7038 14.3988 25.0512 12.3058 25.8804 10.5894C26.2033 9.92106 26.6641 9.45764 27.3285 9.13337C27.8372 8.88506 27.8876 8.87509 28.6337 8.87509C29.3641 8.87509 29.4383 8.88886 29.8978 9.11013C30.2525 9.28091 30.5183 9.48404 30.8702 9.85335L31.3546 10.3616L31.8636 9.9633C32.1436 9.74426 32.4791 9.47378 32.6091 9.36232L32.8456 9.15969L32.5118 8.70833C31.8831 7.85788 30.9702 7.25173 29.8987 6.97315C29.2565 6.8061 28.0991 6.78874 27.4344 6.93621ZM61.6147 6.97759C59.8215 7.44804 58.4264 8.87738 57.9405 10.742C57.7448 11.493 57.7291 12.7459 57.9064 13.4655C58.0744 14.1471 58.4999 15.0257 58.913 15.5438C60.361 17.3598 63.0582 18.0098 65.2667 17.0751C65.8224 16.8399 66.6903 16.2871 66.9544 16.0002L67.1087 15.8324L66.6174 15.1004L66.1261 14.3684L65.574 14.7506C64.9413 15.1885 64.432 15.4014 63.7505 15.5126C62.6015 15.7001 61.2979 15.263 60.6655 14.4782C60.3525 14.0899 60.0562 13.4822 60.0103 13.1344L59.9735 12.8558H63.6834H67.3932L67.4493 12.5868C67.4802 12.4389 67.5029 11.9144 67.4997 11.4213C67.4948 10.6502 67.4673 10.4423 67.3034 9.93555C66.8221 8.44739 65.6781 7.36139 64.182 6.97236C63.4572 6.78386 62.3445 6.78616 61.6147 6.97759ZM34.6841 10.4709C34.7152 14.2382 34.7157 14.2431 35.1798 15.2228C35.4805 15.8577 36.2986 16.6889 36.9281 16.999C37.6454 17.3525 38.1936 17.4744 39.0747 17.4764C39.6873 17.4779 39.9622 17.4436 40.3799 17.3135C41.4979 16.9655 42.3989 16.2054 42.8792 15.2051C43.3643 14.1949 43.3648 14.1904 43.3961 10.4351L43.4243 7.04609H42.3253H41.2264V10.3372C41.2264 14.0944 41.2245 14.1094 40.6747 14.7311C40.1749 15.2963 39.9171 15.4021 39.0394 15.4021C38.3509 15.4021 38.2722 15.3871 37.9225 15.1902C37.4755 14.9384 37.2468 14.6799 36.9999 14.1469L36.8172 13.7524L36.7958 10.3992L36.7742 7.04609H35.715H34.6558L34.6841 10.4709ZM63.7039 8.80178C64.6124 9.07606 65.2237 9.81598 65.3792 10.8296L65.426 11.1344H62.7042H59.9826L60.0289 10.973C60.3291 9.92479 61.0844 9.08682 61.9876 8.79985C62.3914 8.67153 63.2758 8.67253 63.7039 8.80178ZM52.3788 9.10604C53.4737 9.6541 54.1366 10.8005 54.1366 12.1459C54.1366 14.2586 52.5207 15.7687 50.6041 15.4469C49.4843 15.2589 48.6032 14.5088 48.2897 13.4765C47.7794 11.7968 48.2897 9.99013 49.4737 9.28471C50.0824 8.922 50.4395 8.83413 51.213 8.85687C51.8453 8.87545 51.9722 8.90256 52.3788 9.10604Z" fill="white"/>
</g>
<defs>
<clipPath id="clip0_1_661">
<rect width="68" height="20" fill="white"/>
</clipPath>
</defs>
</svg>
