<svg width="48" height="48" viewBox="0 0 48 48" fill="none" xmlns="http://www.w3.org/2000/svg">
<g clip-path="url(#clip0_1_857)">
<path d="M43 0H5C2.23858 0 0 2.23858 0 5V43C0 45.7614 2.23858 48 5 48H43C45.7614 48 48 45.7614 48 43V5C48 2.23858 45.7614 0 43 0Z" fill="#332E4D"/>
<path d="M43 0H5C2.23858 0 0 2.23858 0 5V43C0 45.7614 2.23858 48 5 48H43C45.7614 48 48 45.7614 48 43V5C48 2.23858 45.7614 0 43 0Z" fill="#2B384D"/>
<path fill-rule="evenodd" clip-rule="evenodd" d="M6.86962 25.4809L14.0688 37.9507C14.3456 38.4302 14.7437 38.8281 15.2232 39.1049C15.7027 39.3817 16.2466 39.5274 16.8003 39.5273H31.1986C31.7522 39.5273 32.296 39.3816 32.7754 39.1049C33.2549 38.8281 33.653 38.43 33.9299 37.9507L41.129 25.4812C41.4058 25.0018 41.5516 24.4579 41.5516 23.9042C41.5516 23.3506 41.4058 22.8067 41.129 22.3273L33.9299 9.85784C33.6531 9.37839 33.2549 8.98026 32.7755 8.70345C32.2961 8.42663 31.7522 8.2809 31.1986 8.28088H16.8003C16.2467 8.28085 15.7027 8.42656 15.2233 8.70338C14.7438 8.98019 14.3456 9.37835 14.0688 9.85784L6.86962 22.3273C6.59283 22.8067 6.44711 23.3505 6.44711 23.9041C6.44711 24.4577 6.59283 25.0015 6.86962 25.4809ZM17.6384 23.9044C17.6384 20.3909 20.4865 17.5428 23.9997 17.5428C27.5126 17.5428 30.3607 20.3909 30.3607 23.9044C30.3607 25.3856 29.8545 26.7485 29.0056 27.8297L31.4986 30.3227C31.5541 30.3788 31.5852 30.4544 31.5852 30.5333C31.5852 30.6122 31.5541 30.6879 31.4986 30.7439L30.8396 31.4027C30.7836 31.4585 30.7078 31.4899 30.6288 31.4899C30.5498 31.4899 30.474 31.4585 30.4181 31.4027L27.925 28.9104C26.8439 29.7594 25.4809 30.2656 23.9997 30.2656C20.4865 30.2656 17.6384 27.4175 17.6384 23.9044ZM19.1729 23.9041C19.1729 26.5698 21.334 28.7309 23.9997 28.7309C26.6655 28.7309 28.8266 26.5701 28.8266 23.9044C28.8266 21.2386 26.6655 19.0775 23.9997 19.0775C21.334 19.0775 19.1729 21.2383 19.1729 23.9041ZM20.9802 25.636V23.6586H22.1814V26.8633C21.6855 26.56 21.2728 26.1383 20.9802 25.636ZM23.3621 27.3152V21.9917H24.5641V27.3237C24.3768 27.355 24.1859 27.3756 23.9901 27.3756C23.7754 27.3756 23.5664 27.3528 23.3621 27.3152ZM25.8553 26.8284V24.4803L27.0571 24.4806V25.5394C26.7728 26.0644 26.3591 26.5081 25.8553 26.8284Z" fill="url(#paint0_linear_1_857)"/>
</g>
<defs>
<linearGradient id="paint0_linear_1_857" x1="23.9995" y1="8.28116" x2="23.9995" y2="39.4788" gradientUnits="userSpaceOnUse">
<stop stop-color="#4A8AF7"/>
<stop offset="1" stop-color="#4683EA"/>
</linearGradient>
<clipPath id="clip0_1_857">
<rect width="48" height="48" fill="white"/>
</clipPath>
</defs>
</svg>
